%YAML 1.1
%TAG !u! tag:unity3d.com,2011:
--- !u!114 &11400000
MonoBehaviour:
  m_ObjectHideFlags: 0
  m_PrefabParentObject: {fileID: 0}
  m_PrefabInternal: {fileID: 0}
  m_GameObject: {fileID: 0}
  m_Enabled: 1
  m_EditorHideFlags: 0
  m_Script: {fileID: 11500000, guid: 8dc3dac415b13a2498396b1d7c759bb4, type: 3}
  m_Name: SpeakInteractionLvl3
  m_EditorClassIdentifier: 
  objectName: SpeakInteractionLvl2-R1
  text:
  - THE WORTHY MUST KNOW TO USE HIS EYES
  - FOR OF THREE DOORS JUST ONE IS WISE
  - THE WORTHY MUST USE AGAIN HIS FAITH
  - CROSS THE RIGHT PATH OR MEET HIS DEATH
  textDuration:
  - 3.2
  - 3.4
  - 3.3
  - 3.8
  audioClip: {fileID: 8300000, guid: 54192d8775d1fd6448399d7d22831ce8, type: 3}
